; Move to back of bed
G0 Y212
; Move to center
G0 X105
; Move down
G0 Z0

; Do the jiggle
G0 Y211
G0 Z5
G0 Y212
G0 Z0
G0 Y210
G0 Z5
G0 Y212
G0 Z0
G0 Y209
G0 Z5
G0 Y212
G0 Z0
G0 Y208
G0 Z5
G0 Y212
G0 Z0
G0 Y207
G0 Z5
G0 Y212
G0 Z0
G0 Y206
G0 Z5
G0 Y212
G0 Z0
G0 Y205
G0 Z5
G0 Y212
G0 Z0
G0 Y204
G0 Z5
G0 Y212
G0 Z0
G0 Y203
G0 Z5
G0 Y212
G0 Z0
G0 Y202
G0 Z5
G0 Y212
G0 Z0
G0 Y201
G0 Z5
G0 Y212
G0 Z0
G0 Y200
G0 Z5
G0 Y212
G0 Z0
G0 Y199
G0 Z5
G0 Y212
G0 Z0
G0 Y198
G0 Z5
G0 Y212
G0 Z0
G0 Y197
G0 Z5
G0 Y212
G0 Z0
G0 Y196
G0 Z5
G0 Y212
G0 Z0
G0 Y195
G0 Z5
G0 Y212
G0 Z0
G0 Y194
G0 Z5
G0 Y212
G0 Z0
G0 Y193
G0 Z5
G0 Y212
G0 Z0
G0 Y192
G0 Z5
G0 Y212
G0 Z0
G0 Y191
G0 Z5
G0 Y212
G0 Z0
G0 Y190
G0 Z5
G0 Y212
G0 Z0

; Move to front of bed
G0 Y0
; Move to back of bed
G0 Y212
